Compiling:

gcc -g -Wall -ansi -pedantic -c Sarq.c
gcc -g -Wall -ansi -pedantic -c SarqTest.c
gcc Sarq.o SarqTest.o -lm -o SarqTest
gcc Sarq.o SarqTestMaster.o t1.o -lm -o t1
gcc Sarq.o SarqTestMaster.o t2.o -lm -o t2
gcc Sarq.o SarqTestMaster.o t3.o -lm -o t3

Valgrind output:

==30021== Memcheck, a memory error detector
==30021== Copyright (C) 2002-2010, and GNU GPL'd, by Julian Seward et al.
==30021== Using Valgrind-3.6.1 and LibVEX; rerun with -h for copyright info
==30021== Command: ./t1
==30021== 
==30021== Invalid read of size 8
==30021==    at 0x400C0A: mergeSNodes (Sarq.c:134)
==30021==    by 0x400EBB: SarqInsert (Sarq.c:209)
==30021==    by 0x401BE1: testPrint (SarqTestMaster.c:236)
==30021==    by 0x401CB5: main (t1.c:5)
==30021==  Address 0x54480a0 is 0 bytes inside a block of size 24 free'd
==30021==    at 0x4C282ED: free (vg_replace_malloc.c:366)
==30021==    by 0x401BBB: testPrint (SarqTestMaster.c:232)
==30021==    by 0x401CB5: main (t1.c:5)
==30021== 
==30021== Invalid read of size 8
==30021==    at 0x400C0A: mergeSNodes (Sarq.c:134)
==30021==    by 0x400EBB: SarqInsert (Sarq.c:209)
==30021==    by 0x401BF4: testPrint (SarqTestMaster.c:237)
==30021==    by 0x401CB5: main (t1.c:5)
==30021==  Address 0x54480a0 is 0 bytes inside a block of size 24 free'd
==30021==    at 0x4C282ED: free (vg_replace_malloc.c:366)
==30021==    by 0x401BBB: testPrint (SarqTestMaster.c:232)
==30021==    by 0x401CB5: main (t1.c:5)
==30021== 
==30021== Invalid read of size 8
==30021==    at 0x400C0A: mergeSNodes (Sarq.c:134)
==30021==    by 0x400EBB: SarqInsert (Sarq.c:209)
==30021==    by 0x401C07: testPrint (SarqTestMaster.c:238)
==30021==    by 0x401CB5: main (t1.c:5)
==30021==  Address 0x54480a0 is 0 bytes inside a block of size 24 free'd
==30021==    at 0x4C282ED: free (vg_replace_malloc.c:366)
==30021==    by 0x401BBB: testPrint (SarqTestMaster.c:232)
==30021==    by 0x401CB5: main (t1.c:5)
==30021== 
==30021== Invalid read of size 8
==30021==    at 0x400C0A: mergeSNodes (Sarq.c:134)
==30021==    by 0x400EBB: SarqInsert (Sarq.c:209)
==30021==    by 0x401C1A: testPrint (SarqTestMaster.c:239)
==30021==    by 0x401CB5: main (t1.c:5)
==30021==  Address 0x54480a0 is 0 bytes inside a block of size 24 free'd
==30021==    at 0x4C282ED: free (vg_replace_malloc.c:366)
==30021==    by 0x401BBB: testPrint (SarqTestMaster.c:232)
==30021==    by 0x401CB5: main (t1.c:5)
==30021== 
==30021== Invalid read of size 8
==30021==    at 0x400C0A: mergeSNodes (Sarq.c:134)
==30021==    by 0x400C7C: mergeSNodes (Sarq.c:142)
==30021==    by 0x400EBB: SarqInsert (Sarq.c:209)
==30021==    by 0x401C1A: testPrint (SarqTestMaster.c:239)
==30021==    by 0x401CB5: main (t1.c:5)
==30021==  Address 0x54480a0 is 0 bytes inside a block of size 24 free'd
==30021==    at 0x4C282ED: free (vg_replace_malloc.c:366)
==30021==    by 0x401BBB: testPrint (SarqTestMaster.c:232)
==30021==    by 0x401CB5: main (t1.c:5)
==30021== 
==30021== Invalid read of size 8
==30021==    at 0x400C0A: mergeSNodes (Sarq.c:134)
==30021==    by 0x400EBB: SarqInsert (Sarq.c:209)
==30021==    by 0x401C2D: testPrint (SarqTestMaster.c:240)
==30021==    by 0x401CB5: main (t1.c:5)
==30021==  Address 0x54480a0 is 0 bytes inside a block of size 24 free'd
==30021==    at 0x4C282ED: free (vg_replace_malloc.c:366)
==30021==    by 0x401BBB: testPrint (SarqTestMaster.c:232)
==30021==    by 0x401CB5: main (t1.c:5)
==30021== 
==30021== Invalid read of size 8
==30021==    at 0x400C0A: mergeSNodes (Sarq.c:134)
==30021==    by 0x400C7C: mergeSNodes (Sarq.c:142)
==30021==    by 0x400EBB: SarqInsert (Sarq.c:209)
==30021==    by 0x401C2D: testPrint (SarqTestMaster.c:240)
==30021==    by 0x401CB5: main (t1.c:5)
==30021==  Address 0x54480a0 is 0 bytes inside a block of size 24 free'd
==30021==    at 0x4C282ED: free (vg_replace_malloc.c:366)
==30021==    by 0x401BBB: testPrint (SarqTestMaster.c:232)
==30021==    by 0x401CB5: main (t1.c:5)
==30021== 
==30021== Invalid read of size 8
==30021==    at 0x400C0A: mergeSNodes (Sarq.c:134)
==30021==    by 0x400CAA: mergeSNodes (Sarq.c:144)
==30021==    by 0x400C7C: mergeSNodes (Sarq.c:142)
==30021==    by 0x400EBB: SarqInsert (Sarq.c:209)
==30021==    by 0x401C2D: testPrint (SarqTestMaster.c:240)
==30021==    by 0x401CB5: main (t1.c:5)
==30021==  Address 0x54480a0 is 0 bytes inside a block of size 24 free'd
==30021==    at 0x4C282ED: free (vg_replace_malloc.c:366)
==30021==    by 0x401BBB: testPrint (SarqTestMaster.c:232)
==30021==    by 0x401CB5: main (t1.c:5)
==30021== 
==30021== Invalid read of size 8
==30021==    at 0x400C0A: mergeSNodes (Sarq.c:134)
==30021==    by 0x400EBB: SarqInsert (Sarq.c:209)
==30021==    by 0x401C40: testPrint (SarqTestMaster.c:241)
==30021==    by 0x401CB5: main (t1.c:5)
==30021==  Address 0x54480a0 is 0 bytes inside a block of size 24 free'd
==30021==    at 0x4C282ED: free (vg_replace_malloc.c:366)
==30021==    by 0x401BBB: testPrint (SarqTestMaster.c:232)
==30021==    by 0x401CB5: main (t1.c:5)
==30021== 
==30021== Invalid read of size 8
==30021==    at 0x400C0A: mergeSNodes (Sarq.c:134)
==30021==    by 0x400C7C: mergeSNodes (Sarq.c:142)
==30021==    by 0x400EBB: SarqInsert (Sarq.c:209)
==30021==    by 0x401C40: testPrint (SarqTestMaster.c:241)
==30021==    by 0x401CB5: main (t1.c:5)
==30021==  Address 0x54480a0 is 0 bytes inside a block of size 24 free'd
==30021==    at 0x4C282ED: free (vg_replace_malloc.c:366)
==30021==    by 0x401BBB: testPrint (SarqTestMaster.c:232)
==30021==    by 0x401CB5: main (t1.c:5)
==30021== 
==30021== Invalid read of size 8
==30021==    at 0x400C0A: mergeSNodes (Sarq.c:134)
==30021==    by 0x400CAA: mergeSNodes (Sarq.c:144)
==30021==    by 0x400CAA: mergeSNodes (Sarq.c:144)
==30021==    by 0x400C7C: mergeSNodes (Sarq.c:142)
==30021==    by 0x400EBB: SarqInsert (Sarq.c:209)
==30021==    by 0x401C40: testPrint (SarqTestMaster.c:241)
==30021==    by 0x401CB5: main (t1.c:5)
==30021==  Address 0x54480a0 is 0 bytes inside a block of size 24 free'd
==30021==    at 0x4C282ED: free (vg_replace_malloc.c:366)
==30021==    by 0x401BBB: testPrint (SarqTestMaster.c:232)
==30021==    by 0x401CB5: main (t1.c:5)
==30021== 
==30021== Invalid read of size 8
==30021==    at 0x400C0A: mergeSNodes (Sarq.c:134)
==30021==    by 0x400EBB: SarqInsert (Sarq.c:209)
==30021==    by 0x401C53: testPrint (SarqTestMaster.c:242)
==30021==    by 0x401CB5: main (t1.c:5)
==30021==  Address 0x54480a0 is 0 bytes inside a block of size 24 free'd
==30021==    at 0x4C282ED: free (vg_replace_malloc.c:366)
==30021==    by 0x401BBB: testPrint (SarqTestMaster.c:232)
==30021==    by 0x401CB5: main (t1.c:5)
==30021== 
==30021== Invalid read of size 8
==30021==    at 0x400C0A: mergeSNodes (Sarq.c:134)
==30021==    by 0x400C7C: mergeSNodes (Sarq.c:142)
==30021==    by 0x400EBB: SarqInsert (Sarq.c:209)
==30021==    by 0x401C53: testPrint (SarqTestMaster.c:242)
==30021==    by 0x401CB5: main (t1.c:5)
==30021==  Address 0x54480a0 is 0 bytes inside a block of size 24 free'd
==30021==    at 0x4C282ED: free (vg_replace_malloc.c:366)
==30021==    by 0x401BBB: testPrint (SarqTestMaster.c:232)
==30021==    by 0x401CB5: main (t1.c:5)
==30021== 
==30021== Invalid read of size 8
==30021==    at 0x400C0A: mergeSNodes (Sarq.c:134)
==30021==    by 0x400EBB: SarqInsert (Sarq.c:209)
==30021==    by 0x401C66: testPrint (SarqTestMaster.c:243)
==30021==    by 0x401CB5: main (t1.c:5)
==30021==  Address 0x54480a0 is 0 bytes inside a block of size 24 free'd
==30021==    at 0x4C282ED: free (vg_replace_malloc.c:366)
==30021==    by 0x401BBB: testPrint (SarqTestMaster.c:232)
==30021==    by 0x401CB5: main (t1.c:5)
==30021== 
==30021== Invalid read of size 8
==30021==    at 0x400C0A: mergeSNodes (Sarq.c:134)
==30021==    by 0x400C7C: mergeSNodes (Sarq.c:142)
==30021==    by 0x400EBB: SarqInsert (Sarq.c:209)
==30021==    by 0x401C66: testPrint (SarqTestMaster.c:243)
==30021==    by 0x401CB5: main (t1.c:5)
==30021==  Address 0x54480a0 is 0 bytes inside a block of size 24 free'd
==30021==    at 0x4C282ED: free (vg_replace_malloc.c:366)
==30021==    by 0x401BBB: testPrint (SarqTestMaster.c:232)
==30021==    by 0x401CB5: main (t1.c:5)
==30021== 
==30021== Invalid read of size 8
==30021==    at 0x400C0A: mergeSNodes (Sarq.c:134)
==30021==    by 0x400EBB: SarqInsert (Sarq.c:209)
==30021==    by 0x401C79: testPrint (SarqTestMaster.c:244)
==30021==    by 0x401CB5: main (t1.c:5)
==30021==  Address 0x54480a0 is 0 bytes inside a block of size 24 free'd
==30021==    at 0x4C282ED: free (vg_replace_malloc.c:366)
==30021==    by 0x401BBB: testPrint (SarqTestMaster.c:232)
==30021==    by 0x401CB5: main (t1.c:5)
==30021== 
==30021== Invalid read of size 8
==30021==    at 0x400B28: printNodes (Sarq.c:119)
==30021==    by 0x400F57: SarqPrint (Sarq.c:230)
==30021==    by 0x401C8F: testPrint (SarqTestMaster.c:246)
==30021==    by 0x401CB5: main (t1.c:5)
==30021==  Address 0x54480a8 is 8 bytes inside a block of size 24 free'd
==30021==    at 0x4C282ED: free (vg_replace_malloc.c:366)
==30021==    by 0x401BBB: testPrint (SarqTestMaster.c:232)
==30021==    by 0x401CB5: main (t1.c:5)
==30021== 
==30021== Invalid read of size 8
==30021==    at 0x400B28: printNodes (Sarq.c:119)
==30021==    by 0x400B6A: printNodes (Sarq.c:121)
==30021==    by 0x400F57: SarqPrint (Sarq.c:230)
==30021==    by 0x401C8F: testPrint (SarqTestMaster.c:246)
==30021==    by 0x401CB5: main (t1.c:5)
==30021==  Address 0x54480a8 is 8 bytes inside a block of size 24 free'd
==30021==    at 0x4C282ED: free (vg_replace_malloc.c:366)
==30021==    by 0x401BBB: testPrint (SarqTestMaster.c:232)
==30021==    by 0x401CB5: main (t1.c:5)
==30021== 
==30021== Invalid read of size 8
==30021==    at 0x400B28: printNodes (Sarq.c:119)
==30021==    by 0x400B6A: printNodes (Sarq.c:121)
==30021==    by 0x400B6A: printNodes (Sarq.c:121)
==30021==    by 0x400F57: SarqPrint (Sarq.c:230)
==30021==    by 0x401C8F: testPrint (SarqTestMaster.c:246)
==30021==    by 0x401CB5: main (t1.c:5)
==30021==  Address 0x54480a8 is 8 bytes inside a block of size 24 free'd
==30021==    at 0x4C282ED: free (vg_replace_malloc.c:366)
==30021==    by 0x401BBB: testPrint (SarqTestMaster.c:232)
==30021==    by 0x401CB5: main (t1.c:5)
==30021== 
==30021== Invalid read of size 8
==30021==    at 0x400B28: printNodes (Sarq.c:119)
==30021==    by 0x400B6A: printNodes (Sarq.c:121)
==30021==    by 0x400B6A: printNodes (Sarq.c:121)
==30021==    by 0x400B6A: printNodes (Sarq.c:121)
==30021==    by 0x400F57: SarqPrint (Sarq.c:230)
==30021==    by 0x401C8F: testPrint (SarqTestMaster.c:246)
==30021==    by 0x401CB5: main (t1.c:5)
==30021==  Address 0x54480a8 is 8 bytes inside a block of size 24 free'd
==30021==    at 0x4C282ED: free (vg_replace_malloc.c:366)
==30021==    by 0x401BBB: testPrint (SarqTestMaster.c:232)
==30021==    by 0x401CB5: main (t1.c:5)
==30021== 
==30021== Invalid read of size 8
==30021==    at 0x400B28: printNodes (Sarq.c:119)
==30021==    by 0x400B96: printNodes (Sarq.c:123)
==30021==    by 0x400B6A: printNodes (Sarq.c:121)
==30021==    by 0x400F57: SarqPrint (Sarq.c:230)
==30021==    by 0x401C8F: testPrint (SarqTestMaster.c:246)
==30021==    by 0x401CB5: main (t1.c:5)
==30021==  Address 0x54480a8 is 8 bytes inside a block of size 24 free'd
==30021==    at 0x4C282ED: free (vg_replace_malloc.c:366)
==30021==    by 0x401BBB: testPrint (SarqTestMaster.c:232)
==30021==    by 0x401CB5: main (t1.c:5)
==30021== 
==30021== Invalid read of size 8
==30021==    at 0x400B28: printNodes (Sarq.c:119)
==30021==    by 0x400B96: printNodes (Sarq.c:123)
==30021==    by 0x400B96: printNodes (Sarq.c:123)
==30021==    by 0x400B6A: printNodes (Sarq.c:121)
==30021==    by 0x400F57: SarqPrint (Sarq.c:230)
==30021==    by 0x401C8F: testPrint (SarqTestMaster.c:246)
==30021==    by 0x401CB5: main (t1.c:5)
==30021==  Address 0x54480a8 is 8 bytes inside a block of size 24 free'd
==30021==    at 0x4C282ED: free (vg_replace_malloc.c:366)
==30021==    by 0x401BBB: testPrint (SarqTestMaster.c:232)
==30021==    by 0x401CB5: main (t1.c:5)
==30021== 
==30021== Invalid read of size 8
==30021==    at 0x400B28: printNodes (Sarq.c:119)
==30021==    by 0x400B96: printNodes (Sarq.c:123)
==30021==    by 0x400B96: printNodes (Sarq.c:123)
==30021==    by 0x400B96: printNodes (Sarq.c:123)
==30021==    by 0x400B6A: printNodes (Sarq.c:121)
==30021==    by 0x400F57: SarqPrint (Sarq.c:230)
==30021==    by 0x401C8F: testPrint (SarqTestMaster.c:246)
==30021==    by 0x401CB5: main (t1.c:5)
==30021==  Address 0x54480a8 is 8 bytes inside a block of size 24 free'd
==30021==    at 0x4C282ED: free (vg_replace_malloc.c:366)
==30021==    by 0x401BBB: testPrint (SarqTestMaster.c:232)
==30021==    by 0x401CB5: main (t1.c:5)
==30021== 
==30021== Invalid read of size 8
==30021==    at 0x400B28: printNodes (Sarq.c:119)
==30021==    by 0x400B96: printNodes (Sarq.c:123)
==30021==    by 0x400F57: SarqPrint (Sarq.c:230)
==30021==    by 0x401C8F: testPrint (SarqTestMaster.c:246)
==30021==    by 0x401CB5: main (t1.c:5)
==30021==  Address 0x54480a8 is 8 bytes inside a block of size 24 free'd
==30021==    at 0x4C282ED: free (vg_replace_malloc.c:366)
==30021==    by 0x401BBB: testPrint (SarqTestMaster.c:232)
==30021==    by 0x401CB5: main (t1.c:5)
==30021== 
==30021== Invalid read of size 8
==30021==    at 0x400A6F: freeAllSNode (Sarq.c:105)
==30021==    by 0x400E72: SarqFree (Sarq.c:199)
==30021==    by 0x401CA5: testPrint (SarqTestMaster.c:249)
==30021==    by 0x401CB5: main (t1.c:5)
==30021==  Address 0x54480b0 is 16 bytes inside a block of size 24 free'd
==30021==    at 0x4C282ED: free (vg_replace_malloc.c:366)
==30021==    by 0x401BBB: testPrint (SarqTestMaster.c:232)
==30021==    by 0x401CB5: main (t1.c:5)
==30021== 
==30021== Invalid read of size 8
==30021==    at 0x400A6F: freeAllSNode (Sarq.c:105)
==30021==    by 0x400AA9: freeAllSNode (Sarq.c:107)
==30021==    by 0x400E72: SarqFree (Sarq.c:199)
==30021==    by 0x401CA5: testPrint (SarqTestMaster.c:249)
==30021==    by 0x401CB5: main (t1.c:5)
==30021==  Address 0x54480b0 is 16 bytes inside a block of size 24 free'd
==30021==    at 0x4C282ED: free (vg_replace_malloc.c:366)
==30021==    by 0x401BBB: testPrint (SarqTestMaster.c:232)
==30021==    by 0x401CB5: main (t1.c:5)
==30021== 
==30021== Invalid read of size 8
==30021==    at 0x400A6F: freeAllSNode (Sarq.c:105)
==30021==    by 0x400AA9: freeAllSNode (Sarq.c:107)
==30021==    by 0x400AA9: freeAllSNode (Sarq.c:107)
==30021==    by 0x400E72: SarqFree (Sarq.c:199)
==30021==    by 0x401CA5: testPrint (SarqTestMaster.c:249)
==30021==    by 0x401CB5: main (t1.c:5)
==30021==  Address 0x54480b0 is 16 bytes inside a block of size 24 free'd
==30021==    at 0x4C282ED: free (vg_replace_malloc.c:366)
==30021==    by 0x401BBB: testPrint (SarqTestMaster.c:232)
==30021==    by 0x401CB5: main (t1.c:5)
==30021== 
==30021== Invalid read of size 8
==30021==    at 0x400A6F: freeAllSNode (Sarq.c:105)
==30021==    by 0x400AA9: freeAllSNode (Sarq.c:107)
==30021==    by 0x400AA9: freeAllSNode (Sarq.c:107)
==30021==    by 0x400AA9: freeAllSNode (Sarq.c:107)
==30021==    by 0x400E72: SarqFree (Sarq.c:199)
==30021==    by 0x401CA5: testPrint (SarqTestMaster.c:249)
==30021==    by 0x401CB5: main (t1.c:5)
==30021==  Address 0x54480b0 is 16 bytes inside a block of size 24 free'd
==30021==    at 0x4C282ED: free (vg_replace_malloc.c:366)
==30021==    by 0x401BBB: testPrint (SarqTestMaster.c:232)
==30021==    by 0x401CB5: main (t1.c:5)
==30021== 
==30021== Invalid read of size 8
==30021==    at 0x400A6F: freeAllSNode (Sarq.c:105)
==30021==    by 0x400AC3: freeAllSNode (Sarq.c:108)
==30021==    by 0x400AA9: freeAllSNode (Sarq.c:107)
==30021==    by 0x400E72: SarqFree (Sarq.c:199)
==30021==    by 0x401CA5: testPrint (SarqTestMaster.c:249)
==30021==    by 0x401CB5: main (t1.c:5)
==30021==  Address 0x54480b0 is 16 bytes inside a block of size 24 free'd
==30021==    at 0x4C282ED: free (vg_replace_malloc.c:366)
==30021==    by 0x401BBB: testPrint (SarqTestMaster.c:232)
==30021==    by 0x401CB5: main (t1.c:5)
==30021== 
==30021== Invalid read of size 8
==30021==    at 0x400A6F: freeAllSNode (Sarq.c:105)
==30021==    by 0x400AC3: freeAllSNode (Sarq.c:108)
==30021==    by 0x400AC3: freeAllSNode (Sarq.c:108)
==30021==    by 0x400AA9: freeAllSNode (Sarq.c:107)
==30021==    by 0x400E72: SarqFree (Sarq.c:199)
==30021==    by 0x401CA5: testPrint (SarqTestMaster.c:249)
==30021==    by 0x401CB5: main (t1.c:5)
==30021==  Address 0x54480b0 is 16 bytes inside a block of size 24 free'd
==30021==    at 0x4C282ED: free (vg_replace_malloc.c:366)
==30021==    by 0x401BBB: testPrint (SarqTestMaster.c:232)
==30021==    by 0x401CB5: main (t1.c:5)
==30021== 
==30021== Invalid read of size 8
==30021==    at 0x400A6F: freeAllSNode (Sarq.c:105)
==30021==    by 0x400AC3: freeAllSNode (Sarq.c:108)
==30021==    by 0x400AC3: freeAllSNode (Sarq.c:108)
==30021==    by 0x400AC3: freeAllSNode (Sarq.c:108)
==30021==    by 0x400AA9: freeAllSNode (Sarq.c:107)
==30021==    by 0x400E72: SarqFree (Sarq.c:199)
==30021==    by 0x401CA5: testPrint (SarqTestMaster.c:249)
==30021==    by 0x401CB5: main (t1.c:5)
==30021==  Address 0x54480b0 is 16 bytes inside a block of size 24 free'd
==30021==    at 0x4C282ED: free (vg_replace_malloc.c:366)
==30021==    by 0x401BBB: testPrint (SarqTestMaster.c:232)
==30021==    by 0x401CB5: main (t1.c:5)
==30021== 
==30021== Invalid read of size 8
==30021==    at 0x400A6F: freeAllSNode (Sarq.c:105)
==30021==    by 0x400AC3: freeAllSNode (Sarq.c:108)
==30021==    by 0x400E72: SarqFree (Sarq.c:199)
==30021==    by 0x401CA5: testPrint (SarqTestMaster.c:249)
==30021==    by 0x401CB5: main (t1.c:5)
==30021==  Address 0x54480b0 is 16 bytes inside a block of size 24 free'd
==30021==    at 0x4C282ED: free (vg_replace_malloc.c:366)
==30021==    by 0x401BBB: testPrint (SarqTestMaster.c:232)
==30021==    by 0x401CB5: main (t1.c:5)
==30021== 
 (1  (2  (6  (7 -  (9 - -) )  -)   (3  (10 - -)   (8 - -) ) )   (4  (5 - -)  -) ) 

 ([ 1,  1]  ([ 2,  2]  ([ 3,  3]  ([ 8,  8] - -)  -)   ([ 4,  4] -  ([ 5,  5] -  ([ 6,  6] -  ([ 9,  9] -  ([10, 10] - -) ) ) ) ) )   ([ 7,  7] - -) ) 

Test results: 
1 1 
==30021== 
==30021== HEAP SUMMARY:
==30021==     in use at exit: 0 bytes in 0 blocks
==30021==   total heap usage: 34 allocs, 34 frees, 680 bytes allocated
==30021== 
==30021== All heap blocks were freed -- no leaks are possible
==30021== 
==30021== For counts of detected and suppressed errors, rerun with: -v
==30021== ERROR SUMMARY: 41 errors from 32 contexts (suppressed: 4 from 4)


==30024== Memcheck, a memory error detector
==30024== Copyright (C) 2002-2010, and GNU GPL'd, by Julian Seward et al.
==30024== Using Valgrind-3.6.1 and LibVEX; rerun with -h for copyright info
==30024== Command: ./t2
==30024== 
==30024== Invalid read of size 8
==30024==    at 0x400C0A: mergeSNodes (Sarq.c:134)
==30024==    by 0x400EBB: SarqInsert (Sarq.c:209)
==30024==    by 0x40145F: testInsert (SarqTestMaster.c:106)
==30024==    by 0x401CB5: main (t2.c:5)
==30024==  Address 0x5448040 is 0 bytes inside a block of size 24 free'd
==30024==    at 0x4C282ED: free (vg_replace_malloc.c:366)
==30024==    by 0x4013EA: testInsert (SarqTestMaster.c:101)
==30024==    by 0x401CB5: main (t2.c:5)
==30024== 
==30024== Invalid read of size 8
==30024==    at 0x400C0A: mergeSNodes (Sarq.c:134)
==30024==    by 0x400EBB: SarqInsert (Sarq.c:209)
==30024==    by 0x401480: testInsert (SarqTestMaster.c:107)
==30024==    by 0x401CB5: main (t2.c:5)
==30024==  Address 0x5448040 is 0 bytes inside a block of size 24 free'd
==30024==    at 0x4C282ED: free (vg_replace_malloc.c:366)
==30024==    by 0x4013EA: testInsert (SarqTestMaster.c:101)
==30024==    by 0x401CB5: main (t2.c:5)
==30024== 
==30024== Invalid read of size 8
==30024==    at 0x400C0A: mergeSNodes (Sarq.c:134)
==30024==    by 0x400EBB: SarqInsert (Sarq.c:209)
==30024==    by 0x4014A1: testInsert (SarqTestMaster.c:108)
==30024==    by 0x401CB5: main (t2.c:5)
==30024==  Address 0x5448040 is 0 bytes inside a block of size 24 free'd
==30024==    at 0x4C282ED: free (vg_replace_malloc.c:366)
==30024==    by 0x4013EA: testInsert (SarqTestMaster.c:101)
==30024==    by 0x401CB5: main (t2.c:5)
==30024== 
==30024== Invalid read of size 8
==30024==    at 0x400C0A: mergeSNodes (Sarq.c:134)
==30024==    by 0x400C7C: mergeSNodes (Sarq.c:142)
==30024==    by 0x400EBB: SarqInsert (Sarq.c:209)
==30024==    by 0x4014A1: testInsert (SarqTestMaster.c:108)
==30024==    by 0x401CB5: main (t2.c:5)
==30024==  Address 0x5448040 is 0 bytes inside a block of size 24 free'd
==30024==    at 0x4C282ED: free (vg_replace_malloc.c:366)
==30024==    by 0x4013EA: testInsert (SarqTestMaster.c:101)
==30024==    by 0x401CB5: main (t2.c:5)
==30024== 
1 1 ==30024== Invalid read of size 8
==30024==    at 0x400A6F: freeAllSNode (Sarq.c:105)
==30024==    by 0x400E72: SarqFree (Sarq.c:199)
==30024==    by 0x40150E: testInsert (SarqTestMaster.c:116)
==30024==    by 0x401CB5: main (t2.c:5)
==30024==  Address 0x5448050 is 16 bytes inside a block of size 24 free'd
==30024==    at 0x4C282ED: free (vg_replace_malloc.c:366)
==30024==    by 0x4013EA: testInsert (SarqTestMaster.c:101)
==30024==    by 0x401CB5: main (t2.c:5)
==30024== 
==30024== Invalid read of size 8
==30024==    at 0x400A6F: freeAllSNode (Sarq.c:105)
==30024==    by 0x400AA9: freeAllSNode (Sarq.c:107)
==30024==    by 0x400E72: SarqFree (Sarq.c:199)
==30024==    by 0x40150E: testInsert (SarqTestMaster.c:116)
==30024==    by 0x401CB5: main (t2.c:5)
==30024==  Address 0x5448050 is 16 bytes inside a block of size 24 free'd
==30024==    at 0x4C282ED: free (vg_replace_malloc.c:366)
==30024==    by 0x4013EA: testInsert (SarqTestMaster.c:101)
==30024==    by 0x401CB5: main (t2.c:5)
==30024== 
==30024== Invalid read of size 8
==30024==    at 0x400A6F: freeAllSNode (Sarq.c:105)
==30024==    by 0x400AA9: freeAllSNode (Sarq.c:107)
==30024==    by 0x400AA9: freeAllSNode (Sarq.c:107)
==30024==    by 0x400E72: SarqFree (Sarq.c:199)
==30024==    by 0x40150E: testInsert (SarqTestMaster.c:116)
==30024==    by 0x401CB5: main (t2.c:5)
==30024==  Address 0x5448050 is 16 bytes inside a block of size 24 free'd
==30024==    at 0x4C282ED: free (vg_replace_malloc.c:366)
==30024==    by 0x4013EA: testInsert (SarqTestMaster.c:101)
==30024==    by 0x401CB5: main (t2.c:5)
==30024== 
==30024== Invalid read of size 8
==30024==    at 0x400A6F: freeAllSNode (Sarq.c:105)
==30024==    by 0x400AC3: freeAllSNode (Sarq.c:108)
==30024==    by 0x400E72: SarqFree (Sarq.c:199)
==30024==    by 0x40150E: testInsert (SarqTestMaster.c:116)
==30024==    by 0x401CB5: main (t2.c:5)
==30024==  Address 0x5448050 is 16 bytes inside a block of size 24 free'd
==30024==    at 0x4C282ED: free (vg_replace_malloc.c:366)
==30024==    by 0x4013EA: testInsert (SarqTestMaster.c:101)
==30024==    by 0x401CB5: main (t2.c:5)
==30024== 

==30024== 
==30024== HEAP SUMMARY:
==30024==     in use at exit: 0 bytes in 0 blocks
==30024==   total heap usage: 15 allocs, 15 frees, 312 bytes allocated
==30024== 
==30024== All heap blocks were freed -- no leaks are possible
==30024== 
==30024== For counts of detected and suppressed errors, rerun with: -v
==30024== ERROR SUMMARY: 8 errors from 8 contexts (suppressed: 4 from 4)


==30027== Memcheck, a memory error detector
==30027== Copyright (C) 2002-2010, and GNU GPL'd, by Julian Seward et al.
==30027== Using Valgrind-3.6.1 and LibVEX; rerun with -h for copyright info
==30027== Command: ./t3
==30027== 
==30027== Invalid read of size 8
==30027==    at 0x400C0A: mergeSNodes (Sarq.c:134)
==30027==    by 0x400EBB: SarqInsert (Sarq.c:209)
==30027==    by 0x4017C3: testRemove (SarqTestMaster.c:164)
==30027==    by 0x401CB5: main (t3.c:6)
==30027==  Address 0x54480a0 is 0 bytes inside a block of size 24 free'd
==30027==    at 0x4C282ED: free (vg_replace_malloc.c:366)
==30027==    by 0x40179D: testRemove (SarqTestMaster.c:160)
==30027==    by 0x401CB5: main (t3.c:6)
==30027== 
==30027== Invalid read of size 8
==30027==    at 0x400C0A: mergeSNodes (Sarq.c:134)
==30027==    by 0x400EBB: SarqInsert (Sarq.c:209)
==30027==    by 0x4017D6: testRemove (SarqTestMaster.c:165)
==30027==    by 0x401CB5: main (t3.c:6)
==30027==  Address 0x54480a0 is 0 bytes inside a block of size 24 free'd
==30027==    at 0x4C282ED: free (vg_replace_malloc.c:366)
==30027==    by 0x40179D: testRemove (SarqTestMaster.c:160)
==30027==    by 0x401CB5: main (t3.c:6)
==30027== 
==30027== Invalid read of size 8
==30027==    at 0x400C0A: mergeSNodes (Sarq.c:134)
==30027==    by 0x400EBB: SarqInsert (Sarq.c:209)
==30027==    by 0x4017E9: testRemove (SarqTestMaster.c:166)
==30027==    by 0x401CB5: main (t3.c:6)
==30027==  Address 0x54480a0 is 0 bytes inside a block of size 24 free'd
==30027==    at 0x4C282ED: free (vg_replace_malloc.c:366)
==30027==    by 0x40179D: testRemove (SarqTestMaster.c:160)
==30027==    by 0x401CB5: main (t3.c:6)
==30027== 
==30027== Invalid read of size 8
==30027==    at 0x400C0A: mergeSNodes (Sarq.c:134)
==30027==    by 0x400EBB: SarqInsert (Sarq.c:209)
==30027==    by 0x4017FC: testRemove (SarqTestMaster.c:167)
==30027==    by 0x401CB5: main (t3.c:6)
==30027==  Address 0x54480a0 is 0 bytes inside a block of size 24 free'd
==30027==    at 0x4C282ED: free (vg_replace_malloc.c:366)
==30027==    by 0x40179D: testRemove (SarqTestMaster.c:160)
==30027==    by 0x401CB5: main (t3.c:6)
==30027== 
==30027== Invalid read of size 8
==30027==    at 0x400C0A: mergeSNodes (Sarq.c:134)
==30027==    by 0x400C7C: mergeSNodes (Sarq.c:142)
==30027==    by 0x400EBB: SarqInsert (Sarq.c:209)
==30027==    by 0x4017FC: testRemove (SarqTestMaster.c:167)
==30027==    by 0x401CB5: main (t3.c:6)
==30027==  Address 0x54480a0 is 0 bytes inside a block of size 24 free'd
==30027==    at 0x4C282ED: free (vg_replace_malloc.c:366)
==30027==    by 0x40179D: testRemove (SarqTestMaster.c:160)
==30027==    by 0x401CB5: main (t3.c:6)
==30027== 
==30027== Invalid read of size 8
==30027==    at 0x400C0A: mergeSNodes (Sarq.c:134)
==30027==    by 0x400C7C: mergeSNodes (Sarq.c:142)
==30027==    by 0x400C7C: mergeSNodes (Sarq.c:142)
==30027==    by 0x400EBB: SarqInsert (Sarq.c:209)
==30027==    by 0x4017FC: testRemove (SarqTestMaster.c:167)
==30027==    by 0x401CB5: main (t3.c:6)
==30027==  Address 0x54480a0 is 0 bytes inside a block of size 24 free'd
==30027==    at 0x4C282ED: free (vg_replace_malloc.c:366)
==30027==    by 0x40179D: testRemove (SarqTestMaster.c:160)
==30027==    by 0x401CB5: main (t3.c:6)
==30027== 
==30027== Invalid read of size 8
==30027==    at 0x400C0A: mergeSNodes (Sarq.c:134)
==30027==    by 0x400CAA: mergeSNodes (Sarq.c:144)
==30027==    by 0x400C7C: mergeSNodes (Sarq.c:142)
==30027==    by 0x400C7C: mergeSNodes (Sarq.c:142)
==30027==    by 0x400EBB: SarqInsert (Sarq.c:209)
==30027==    by 0x4017FC: testRemove (SarqTestMaster.c:167)
==30027==    by 0x401CB5: main (t3.c:6)
==30027==  Address 0x54480a0 is 0 bytes inside a block of size 24 free'd
==30027==    at 0x4C282ED: free (vg_replace_malloc.c:366)
==30027==    by 0x40179D: testRemove (SarqTestMaster.c:160)
==30027==    by 0x401CB5: main (t3.c:6)
==30027== 
==30027== Invalid read of size 8
==30027==    at 0x400C0A: mergeSNodes (Sarq.c:134)
==30027==    by 0x400EBB: SarqInsert (Sarq.c:209)
==30027==    by 0x40180F: testRemove (SarqTestMaster.c:168)
==30027==    by 0x401CB5: main (t3.c:6)
==30027==  Address 0x54480a0 is 0 bytes inside a block of size 24 free'd
==30027==    at 0x4C282ED: free (vg_replace_malloc.c:366)
==30027==    by 0x40179D: testRemove (SarqTestMaster.c:160)
==30027==    by 0x401CB5: main (t3.c:6)
==30027== 
==30027== Invalid read of size 8
==30027==    at 0x400C0A: mergeSNodes (Sarq.c:134)
==30027==    by 0x400C7C: mergeSNodes (Sarq.c:142)
==30027==    by 0x400EBB: SarqInsert (Sarq.c:209)
==30027==    by 0x40180F: testRemove (SarqTestMaster.c:168)
==30027==    by 0x401CB5: main (t3.c:6)
==30027==  Address 0x54480a0 is 0 bytes inside a block of size 24 free'd
==30027==    at 0x4C282ED: free (vg_replace_malloc.c:366)
==30027==    by 0x40179D: testRemove (SarqTestMaster.c:160)
==30027==    by 0x401CB5: main (t3.c:6)
==30027== 
==30027== Invalid read of size 8
==30027==    at 0x400C0A: mergeSNodes (Sarq.c:134)
==30027==    by 0x400EBB: SarqInsert (Sarq.c:209)
==30027==    by 0x401822: testRemove (SarqTestMaster.c:169)
==30027==    by 0x401CB5: main (t3.c:6)
==30027==  Address 0x54480a0 is 0 bytes inside a block of size 24 free'd
==30027==    at 0x4C282ED: free (vg_replace_malloc.c:366)
==30027==    by 0x40179D: testRemove (SarqTestMaster.c:160)
==30027==    by 0x401CB5: main (t3.c:6)
==30027== 
==30027== Invalid read of size 8
==30027==    at 0x400C0A: mergeSNodes (Sarq.c:134)
==30027==    by 0x400C7C: mergeSNodes (Sarq.c:142)
==30027==    by 0x400EBB: SarqInsert (Sarq.c:209)
==30027==    by 0x401822: testRemove (SarqTestMaster.c:169)
==30027==    by 0x401CB5: main (t3.c:6)
==30027==  Address 0x54480a0 is 0 bytes inside a block of size 24 free'd
==30027==    at 0x4C282ED: free (vg_replace_malloc.c:366)
==30027==    by 0x40179D: testRemove (SarqTestMaster.c:160)
==30027==    by 0x401CB5: main (t3.c:6)
==30027== 
==30027== Invalid read of size 8
==30027==    at 0x400C0A: mergeSNodes (Sarq.c:134)
==30027==    by 0x400EBB: SarqInsert (Sarq.c:209)
==30027==    by 0x401835: testRemove (SarqTestMaster.c:170)
==30027==    by 0x401CB5: main (t3.c:6)
==30027==  Address 0x54480a0 is 0 bytes inside a block of size 24 free'd
==30027==    at 0x4C282ED: free (vg_replace_malloc.c:366)
==30027==    by 0x40179D: testRemove (SarqTestMaster.c:160)
==30027==    by 0x401CB5: main (t3.c:6)
==30027== 
==30027== Invalid read of size 8
==30027==    at 0x400C0A: mergeSNodes (Sarq.c:134)
==30027==    by 0x400C7C: mergeSNodes (Sarq.c:142)
==30027==    by 0x400EBB: SarqInsert (Sarq.c:209)
==30027==    by 0x401835: testRemove (SarqTestMaster.c:170)
==30027==    by 0x401CB5: main (t3.c:6)
==30027==  Address 0x54480a0 is 0 bytes inside a block of size 24 free'd
==30027==    at 0x4C282ED: free (vg_replace_malloc.c:366)
==30027==    by 0x40179D: testRemove (SarqTestMaster.c:160)
==30027==    by 0x401CB5: main (t3.c:6)
==30027== 
==30027== Invalid read of size 8
==30027==    at 0x400C0A: mergeSNodes (Sarq.c:134)
==30027==    by 0x400C7C: mergeSNodes (Sarq.c:142)
==30027==    by 0x400C7C: mergeSNodes (Sarq.c:142)
==30027==    by 0x400C7C: mergeSNodes (Sarq.c:142)
==30027==    by 0x400EBB: SarqInsert (Sarq.c:209)
==30027==    by 0x401835: testRemove (SarqTestMaster.c:170)
==30027==    by 0x401CB5: main (t3.c:6)
==30027==  Address 0x54480a0 is 0 bytes inside a block of size 24 free'd
==30027==    at 0x4C282ED: free (vg_replace_malloc.c:366)
==30027==    by 0x40179D: testRemove (SarqTestMaster.c:160)
==30027==    by 0x401CB5: main (t3.c:6)
==30027== 
==30027== Invalid read of size 8
==30027==    at 0x400C0A: mergeSNodes (Sarq.c:134)
==30027==    by 0x400EBB: SarqInsert (Sarq.c:209)
==30027==    by 0x401848: testRemove (SarqTestMaster.c:171)
==30027==    by 0x401CB5: main (t3.c:6)
==30027==  Address 0x54480a0 is 0 bytes inside a block of size 24 free'd
==30027==    at 0x4C282ED: free (vg_replace_malloc.c:366)
==30027==    by 0x40179D: testRemove (SarqTestMaster.c:160)
==30027==    by 0x401CB5: main (t3.c:6)
==30027== 
==30027== Invalid read of size 8
==30027==    at 0x400C0A: mergeSNodes (Sarq.c:134)
==30027==    by 0x400C7C: mergeSNodes (Sarq.c:142)
==30027==    by 0x400EBB: SarqInsert (Sarq.c:209)
==30027==    by 0x401848: testRemove (SarqTestMaster.c:171)
==30027==    by 0x401CB5: main (t3.c:6)
==30027==  Address 0x54480a0 is 0 bytes inside a block of size 24 free'd
==30027==    at 0x4C282ED: free (vg_replace_malloc.c:366)
==30027==    by 0x40179D: testRemove (SarqTestMaster.c:160)
==30027==    by 0x401CB5: main (t3.c:6)
==30027== 
==30027== Invalid read of size 8
==30027==    at 0x400C0A: mergeSNodes (Sarq.c:134)
==30027==    by 0x400EBB: SarqInsert (Sarq.c:209)
==30027==    by 0x40185B: testRemove (SarqTestMaster.c:172)
==30027==    by 0x401CB5: main (t3.c:6)
==30027==  Address 0x54480a0 is 0 bytes inside a block of size 24 free'd
==30027==    at 0x4C282ED: free (vg_replace_malloc.c:366)
==30027==    by 0x40179D: testRemove (SarqTestMaster.c:160)
==30027==    by 0x401CB5: main (t3.c:6)
==30027== 
==30027== Invalid read of size 8
==30027==    at 0x400C0A: mergeSNodes (Sarq.c:134)
==30027==    by 0x400C7C: mergeSNodes (Sarq.c:142)
==30027==    by 0x400EBB: SarqInsert (Sarq.c:209)
==30027==    by 0x40185B: testRemove (SarqTestMaster.c:172)
==30027==    by 0x401CB5: main (t3.c:6)
==30027==  Address 0x54480a0 is 0 bytes inside a block of size 24 free'd
==30027==    at 0x4C282ED: free (vg_replace_malloc.c:366)
==30027==    by 0x40179D: testRemove (SarqTestMaster.c:160)
==30027==    by 0x401CB5: main (t3.c:6)
==30027== 
==30027== Invalid read of size 8
==30027==    at 0x400C0A: mergeSNodes (Sarq.c:134)
==30027==    by 0x400D0C: popSarqRoot (Sarq.c:154)
==30027==    by 0x400D34: removeRoot (Sarq.c:163)
==30027==    by 0x400F0B: SarqRemove (Sarq.c:221)
==30027==    by 0x40187D: testRemove (SarqTestMaster.c:174)
==30027==    by 0x401CB5: main (t3.c:6)
==30027==  Address 0x54480a0 is 0 bytes inside a block of size 24 free'd
==30027==    at 0x4C282ED: free (vg_replace_malloc.c:366)
==30027==    by 0x40179D: testRemove (SarqTestMaster.c:160)
==30027==    by 0x401CB5: main (t3.c:6)
==30027== 
==30027== Invalid read of size 8
==30027==    at 0x400C0A: mergeSNodes (Sarq.c:134)
==30027==    by 0x400C7C: mergeSNodes (Sarq.c:142)
==30027==    by 0x400D0C: popSarqRoot (Sarq.c:154)
==30027==    by 0x400D34: removeRoot (Sarq.c:163)
==30027==    by 0x400F0B: SarqRemove (Sarq.c:221)
==30027==    by 0x40187D: testRemove (SarqTestMaster.c:174)
==30027==    by 0x401CB5: main (t3.c:6)
==30027==  Address 0x54480a0 is 0 bytes inside a block of size 24 free'd
==30027==    at 0x4C282ED: free (vg_replace_malloc.c:366)
==30027==    by 0x40179D: testRemove (SarqTestMaster.c:160)
==30027==    by 0x401CB5: main (t3.c:6)
==30027== 
==30027== Invalid read of size 8
==30027==    at 0x400C0A: mergeSNodes (Sarq.c:134)
==30027==    by 0x400CAA: mergeSNodes (Sarq.c:144)
==30027==    by 0x400D0C: popSarqRoot (Sarq.c:154)
==30027==    by 0x400D34: removeRoot (Sarq.c:163)
==30027==    by 0x400F0B: SarqRemove (Sarq.c:221)
==30027==    by 0x4018DF: testRemove (SarqTestMaster.c:177)
==30027==    by 0x401CB5: main (t3.c:6)
==30027==  Address 0x54480a0 is 0 bytes inside a block of size 24 free'd
==30027==    at 0x4C282ED: free (vg_replace_malloc.c:366)
==30027==    by 0x40179D: testRemove (SarqTestMaster.c:160)
==30027==    by 0x401CB5: main (t3.c:6)
==30027== 
1 1 
==30027== 
==30027== HEAP SUMMARY:
==30027==     in use at exit: 0 bytes in 0 blocks
==30027==   total heap usage: 33 allocs, 33 frees, 648 bytes allocated
==30027== 
==30027== All heap blocks were freed -- no leaks are possible
==30027== 
==30027== For counts of detected and suppressed errors, rerun with: -v
==30027== ERROR SUMMARY: 37 errors from 21 contexts (suppressed: 4 from 4)

Summary: 

==30021== Command: ./t1
==30021== Invalid read of size 8
==30021== Invalid read of size 8
==30021== Invalid read of size 8
==30021== Invalid read of size 8
==30021== Invalid read of size 8
==30021== Invalid read of size 8
==30021== Invalid read of size 8
==30021== Invalid read of size 8
==30021== Invalid read of size 8
==30021== Invalid read of size 8
==30021== Invalid read of size 8
==30021== Invalid read of size 8
==30021== Invalid read of size 8
==30021== Invalid read of size 8
==30021== Invalid read of size 8
==30021== Invalid read of size 8
==30021== Invalid read of size 8
==30021== Invalid read of size 8
==30021== Invalid read of size 8
==30021== Invalid read of size 8
==30021== Invalid read of size 8
==30021== Invalid read of size 8
==30021== Invalid read of size 8
==30021== Invalid read of size 8
==30021== Invalid read of size 8
==30021== Invalid read of size 8
==30021== Invalid read of size 8
==30021== Invalid read of size 8
==30021== Invalid read of size 8
==30021== Invalid read of size 8
==30021== Invalid read of size 8
==30021== Invalid read of size 8
==30021== All heap blocks were freed -- no leaks are possible
==30024== Command: ./t2
==30024== Invalid read of size 8
==30024== Invalid read of size 8
==30024== Invalid read of size 8
==30024== Invalid read of size 8
1 1 ==30024== Invalid read of size 8
==30024== Invalid read of size 8
==30024== Invalid read of size 8
==30024== Invalid read of size 8
==30024== All heap blocks were freed -- no leaks are possible
==30027== Command: ./t3
==30027== Invalid read of size 8
==30027== Invalid read of size 8
==30027== Invalid read of size 8
==30027== Invalid read of size 8
==30027== Invalid read of size 8
==30027== Invalid read of size 8
==30027== Invalid read of size 8
==30027== Invalid read of size 8
==30027== Invalid read of size 8
==30027== Invalid read of size 8
==30027== Invalid read of size 8
==30027== Invalid read of size 8
==30027== Invalid read of size 8
==30027== Invalid read of size 8
==30027== Invalid read of size 8
==30027== Invalid read of size 8
==30027== Invalid read of size 8
==30027== Invalid read of size 8
==30027== Invalid read of size 8
==30027== Invalid read of size 8
==30027== Invalid read of size 8
==30027== All heap blocks were freed -- no leaks are possible


User SarqTest


size: 2
 (15  (20 - -)  -) 
rm: 15, size: 1
 (20 - -) 
rm: 20, size: 0
-
rm: 0, size: 0
-

size: 10, depth: 4
 (0  (2  (6 -  (9 - -) )   (4  (5 - -)  -) )   (1 -  (3  (8 - -)   (7 - -) ) ) ) 
bar
foo
foo
(nil)


Master SarqTest


0 0
0 0
0 0
print: 1 1
valgrind: 0 0 0

You compiled cleanly, but your code was full of invalid reads.  it segfaulted on every test, 
which makes me think the bug was probably in SarqFree.  I'll talk to dave about partial credit, 
but as of right now, you've failed every test because you segfaulted in each script.

Your print function looks good, so I'll give you the credit for that.

You're taking ownership of the user's SarqType.  Read the spec.  Your merge function is 
the source of the invalid reads.  Let me know if this hasn't worked out yet, and we'll get it running.


